<svg version="1.1" id="Layer_1" xmlns="http://www.w3.org/2000/svg" xmlns:xlink="http://www.w3.org/1999/xlink" x="0px" y="0px"
	 viewBox="0 0 500 253.5" style="enable-background:new 0 0 500 253.5;" xml:space="preserve">
<style type="text/css">
	.st0{fill:#FFFFFF;}
</style>
<title>red1000-arrow-down</title>
<polygon class="st0" points="250,20.1 0,0 500,0 "/>
</svg>
